…
We’ve decided to run our analysis in RStudio to take advantage of data wrangling and visualization functions from the tidyverse as well as to create a reproducible workflow in case we want to revisit this analysis later. First, let’s load in our data and take a look at it in RStudio.

If you would like to follow along, you can download the Excel file called spending.xlsx here by clicking on the Download icon (arrow pointing down) on the top right corner.
Note that in the code chunk below we are reading this file from a folder called data so we recommend you create such a folder in your working directory and place the file you downloaded there.
You can also follow along with the analysis on RStudio Cloud here.

library(tidyverse)
library(readxl)

spending <- read_excel("data/spending.xlsx")
spending

## # A tibble: 48 x 5
##    month expense  amount num_of_expenses budget
##    <chr> <chr>     <dbl>           <dbl>  <dbl>
##  1 Jan   lawsuits   9916              17   6422
##  2 Feb   lawsuits   9575              16   3125
##  3 Mar   lawsuits   5760              33   3913
##  4 Apr   lawsuits   3828              36   4062
##  5 May   lawsuits   5322              25   6347
##  6 Jun   lawsuits   6809              32    643
##  7 Jul   lawsuits   8568              37   5985
##  8 Aug   lawsuits   7562              34  10709
##  9 Sep   lawsuits   5682              26   9719
## 10 Oct   lawsuits   3689              16   7887
## # … with 38 more rows
…
For our tidyverse comparison, When creating a column that requires multiple or nested logical conditions, we can take advantage of the case_when() function from dplyr. Similar to a CASE statement in SQL, we can set parameters for what a given value should be based on conditions from other rows or columns in our data. To do this we can create a new column using the mutate() function and apply case_when() within that call.

spending_quarter <- spending %>%
  mutate(quarter = case_when(
    month %in% c("Jan", "Feb", "Mar") ~ "Q1",
    month %in% c("Apr", "May", "Jun") ~ "Q2",
    month %in% c("Jul", "Aug", "Sep") ~ "Q3",
    month %in% c("Oct", "Nov", "Dec") ~ "Q4",
    TRUE ~ "NA"
  ))

spending_quarter

## # A tibble: 48 x 6
##    month expense  amount num_of_expenses budget quarter
##    <chr> <chr>     <dbl>           <dbl>  <dbl> <chr>  
##  1 Jan   lawsuits   9916              17   6422 Q1     
##  2 Feb   lawsuits   9575              16   3125 Q1     
##  3 Mar   lawsuits   5760              33   3913 Q1     
##  4 Apr   lawsuits   3828              36   4062 Q2     
##  5 May   lawsuits   5322              25   6347 Q2     
##  6 Jun   lawsuits   6809              32    643 Q2     
##  7 Jul   lawsuits   8568              37   5985 Q3     
##  8 Aug   lawsuits   7562              34  10709 Q3     
##  9 Sep   lawsuits   5682              26   9719 Q3     
## 10 Oct   lawsuits   3689              16   7887 Q4     
## # … with 38 more rows
…
VLOOKUP

Starting our tidyverse comparison, we’ll first load our data.
Our data set contains two sheets so we’ll load them in separately as two distinct data frames.

If you would like to follow along, you can download the Excel file called superheroes.xlsx here and remember that you can also follow along with the analysis on RStudio Cloud here.

superheroes <- read_excel("data/superheroes.xlsx", sheet = "heroes")
identities <- read_excel("data/superheroes.xlsx", sheet = "alter_egos")

Let’s take a look at the sheet with data on superheroes.

superheroes

## # A tibble: 26 x 4
##    hero            universe has_powers first_appearance   
##    <chr>           <chr>    <chr>      <dttm>             
##  1 Superman        DC       yes        1938-04-18 00:00:00
##  2 Batman          DC       no         1939-03-30 00:00:00
##  3 Spider-Man      Marvel   yes        1962-08-01 00:00:00
##  4 Green Lantern   DC       yes        1971-12-01 00:00:00
##  5 Daredevil       Marvel   no         1964-04-01 00:00:00
##  6 Wonder Woman    DC       yes        1941-10-01 00:00:00
##  7 Black Widow     Marvel   no         1964-04-01 00:00:00
##  8 Captain America Marvel   yes        1941-03-01 00:00:00
##  9 Hulk            Marvel   yes        1962-05-01 00:00:00
## 10 Thor            Marvel   yes        1962-08-01 00:00:00
## # … with 16 more rows

And now let’s take a look at the sheet listing the alter ego of each character.

identities

## # A tibble: 26 x 3
##    hero            alter_ego        is_secret
##    <chr>           <chr>            <chr>    
##  1 Superman        Clark Kent       yes      
##  2 Batman          Bruce Wayne      yes      
##  3 Spider-Man      Peter Parker     yes      
##  4 Green Lantern   John Stewart     yes      
##  5 Daredevil       Matt Murdock     yes      
##  6 Wonder Woman    Diana Prince     yes      
##  7 Black Widow     Natasha Romanova no       
##  8 Captain America Steve Rogers     no       
##  9 Hulk            Bruce Banner     no       
## 10 Thor            Donald Blake     yes      
## # … with 16 more rows

Using left_join() from the dplyr package, we can bring in the data from the identities data frame into our superheroes data frame.

To do this we’ll call left_join() on superheroes, putting the identities data set as our first argument and specify our common variable with the by argument.

superhero_identities <- superheroes %>%
  left_join(identities, by = "hero")

superhero_identities

## # A tibble: 26 x 6
##    hero          universe has_powers first_appearance    alter_ego     is_secret
##    <chr>         <chr>    <chr>      <dttm>              <chr>         <chr>    
##  1 Superman      DC       yes        1938-04-18 00:00:00 Clark Kent    yes      
##  2 Batman        DC       no         1939-03-30 00:00:00 Bruce Wayne   yes      
##  3 Spider-Man    Marvel   yes        1962-08-01 00:00:00 Peter Parker  yes      
##  4 Green Lantern DC       yes        1971-12-01 00:00:00 John Stewart  yes      
##  5 Daredevil     Marvel   no         1964-04-01 00:00:00 Matt Murdock  yes      
##  6 Wonder Woman  DC       yes        1941-10-01 00:00:00 Diana Prince  yes      
##  7 Black Widow   Marvel   no         1964-04-01 00:00:00 Natasha Roma… no       
##  8 Captain Amer… Marvel   yes        1941-03-01 00:00:00 Steve Rogers  no       
##  9 Hulk          Marvel   yes        1962-05-01 00:00:00 Bruce Banner  no       
## 10 Thor          Marvel   yes        1962-08-01 00:00:00 Donald Blake  yes      
## # … with 16 more rows

Great, we’ve joined the data frames with no problem!

There are, of course, instances in which we’ll need to pull in data from multiple sheets, and the superheroes data set is no exception.
We’ve been informed there are an additional two sheets that have recently been added. One containing information on the main power or skill of each character.

powers <- read_excel("data/superheroes.xlsx", sheet = "powers")
powers

## # A tibble: 26 x 2
##    hero            main_power           
##    <chr>           <chr>                
##  1 Superman        flight               
##  2 Batman          inexhaustable wealth 
##  3 Spider-Man      wall-crawling        
##  4 Green Lantern   power ring           
##  5 Daredevil       echo-location        
##  6 Wonder Woman    super strength       
##  7 Black Widow     training             
##  8 Captain America peak physical fitness
##  9 Hulk            super strength       
## 10 Thor            magic hammer         
## # … with 16 more rows

And the other containing the occupation of the alter-ego of each superhero.

occupation <- read_excel("data/superheroes.xlsx", sheet = "occupation")
occupation

## # A tibble: 26 x 2
##    name             occupation          
##    <chr>            <chr>               
##  1 Clark Kent       Reporter            
##  2 Bruce Wayne      CEO                 
##  3 Peter Parker     Photogragpher       
##  4 John Stewart     U.S. Marine         
##  5 Matt Murdock     Lawyer              
##  6 Diana Prince     Intelligence Officer
##  7 Natasha Romanova Spy/Assassin        
##  8 Steve Rogers     Solider             
##  9 Bruce Banner     Scientist           
## 10 Donald Blake     Doctor              
## # … with 16 more rows
…
