Introduction to gganimate
…
---
count: false
 
Data Manipulation
.panel1-plotdata-auto[

```r
*unemployment
```
]
 
.panel2-plotdata-auto[

```
## # A tibble: 810 x 5
##    LOCATION Country SUBJECT  TIME Value
##    <chr>    <chr>   <chr>   <dbl> <dbl>
##  1 AUT      Austria TOT      1999  4.97
##  2 AUT      Austria TOT      2000  5.15
##  3 AUT      Austria TOT      2001  5.7 
##  4 AUT      Austria TOT      2002  6.18
##  5 AUT      Austria TOT      2003  7.05
##  6 AUT      Austria TOT      2004 10.5 
##  7 AUT      Austria TOT      2005 11.0 
##  8 AUT      Austria TOT      2006  9.8 
##  9 AUT      Austria TOT      2007  9.38
## 10 AUT      Austria TOT      2008  8.48
## # ... with 800 more rows
```
…
Data Manipulation
.panel1-plotdata-auto[

```r
unemployment %>%  
* filter(SUBJECT == "TOT")
```
]
 
.panel2-plotdata-auto[

```
## # A tibble: 271 x 5
##    LOCATION Country SUBJECT  TIME Value
##    <chr>    <chr>   <chr>   <dbl> <dbl>
##  1 AUT      Austria TOT      1999  4.97
##  2 AUT      Austria TOT      2000  5.15
##  3 AUT      Austria TOT      2001  5.7 
##  4 AUT      Austria TOT      2002  6.18
##  5 AUT      Austria TOT      2003  7.05
##  6 AUT      Austria TOT      2004 10.5 
##  7 AUT      Austria TOT      2005 11.0 
##  8 AUT      Austria TOT      2006  9.8 
##  9 AUT      Austria TOT      2007  9.38
## 10 AUT      Austria TOT      2008  8.48
## # ... with 261 more rows
```
…
Data Manipulation
.panel1-plotdata-auto[

```r
unemployment %>%  
  filter(SUBJECT == "TOT") %>%  
* filter(TIME>=2007)
```
]
 
.panel2-plotdata-auto[

```
## # A tibble: 164 x 5
##    LOCATION Country SUBJECT  TIME Value
##    <chr>    <chr>   <chr>   <dbl> <dbl>
##  1 AUT      Austria TOT      2007  9.38
##  2 AUT      Austria TOT      2008  8.48
##  3 AUT      Austria TOT      2009 10.6 
##  4 AUT      Austria TOT      2010  9.48
##  5 AUT      Austria TOT      2011  8.95
##  6 AUT      Austria TOT      2012  9.4 
##  7 AUT      Austria TOT      2013  9.68
##  8 AUT      Austria TOT      2014 10.3 
##  9 AUT      Austria TOT      2015 10.6 
## 10 AUT      Austria TOT      2016 11.2 
## # ... with 154 more rows
```
…
Data Manipulation
.panel1-plotdata-auto[

```r
unemployment %>%  
  filter(SUBJECT == "TOT") %>%  
  filter(TIME>=2007) %>%  
* filter(Country!= "Estonia")
```
]
 
.panel2-plotdata-auto[

```
## # A tibble: 154 x 5
##    LOCATION Country SUBJECT  TIME Value
##    <chr>    <chr>   <chr>   <dbl> <dbl>
##  1 AUT      Austria TOT      2007  9.38
##  2 AUT      Austria TOT      2008  8.48
##  3 AUT      Austria TOT      2009 10.6 
##  4 AUT      Austria TOT      2010  9.48
##  5 AUT      Austria TOT      2011  8.95
##  6 AUT      Austria TOT      2012  9.4 
##  7 AUT      Austria TOT      2013  9.68
##  8 AUT      Austria TOT      2014 10.3 
##  9 AUT      Austria TOT      2015 10.6 
## 10 AUT      Austria TOT      2016 11.2 
## # ... with 144 more rows
```
…
```r
unemployment %>%  
  filter(SUBJECT == "TOT") %>%  
  filter(TIME>=2007) %>%  
  filter(Country!= "Estonia")%>%  
* select(-LOCATION)
```
]
 
.panel2-plotdata-auto[

```
## # A tibble: 154 x 4
##    Country SUBJECT  TIME Value
##    <chr>   <chr>   <dbl> <dbl>
##  1 Austria TOT      2007  9.38
##  2 Austria TOT      2008  8.48
##  3 Austria TOT      2009 10.6 
##  4 Austria TOT      2010  9.48
##  5 Austria TOT      2011  8.95
##  6 Austria TOT      2012  9.4 
##  7 Austria TOT      2013  9.68
##  8 Austria TOT      2014 10.3 
##  9 Austria TOT      2015 10.6 
## 10 Austria TOT      2016 11.2 
## # ... with 144 more rows
```
…
```r
unemployment %>%  
  filter(SUBJECT == "TOT") %>%  
  filter(TIME>=2007) %>%  
  filter(Country!= "Estonia")%>%  
  select(-LOCATION) %>%  
* select(-SUBJECT)
```
]
 
.panel2-plotdata-auto[

```
## # A tibble: 154 x 3
##    Country  TIME Value
##    <chr>   <dbl> <dbl>
##  1 Austria  2007  9.38
##  2 Austria  2008  8.48
##  3 Austria  2009 10.6 
##  4 Austria  2010  9.48
##  5 Austria  2011  8.95
##  6 Austria  2012  9.4 
##  7 Austria  2013  9.68
##  8 Austria  2014 10.3 
##  9 Austria  2015 10.6 
## 10 Austria  2016 11.2 
## # ... with 144 more rows
```
…
