Mapping Political Change in Idaho
…
count: false
 
## Prepping the Data
.panel1-data_prep-auto[

```r
*members02_11
```
]
 
.panel2-data_prep-auto[

```
# A tibble: 1,131 x 14
   name  chamber party district committees positions partialsession
   <chr> <chr>   <chr>    <dbl> <chr>      <chr>     <chr>         
 1 John~ House   R            1 Environme~ <NA>      <NA>          
 2 Geor~ House   R            1 Local Gov~ <NA>      <NA>          
 3 Hild~ House   R            2 Business;~ <NA>      Temporary Abs~
 4 Free~ House   R            2 <NA>       <NA>      Acting Repres~
 5 Wayn~ House   R            2 Appropria~ <NA>      <NA>          
 6 Jim ~ House   R            3 Appropria~ <NA>      <NA>          
 7 Kris~ House   R            3 Business;~ <NA>      <NA>          
 8 Mary~ House   D            4 State Aff~ <NA>      <NA>          
 9 Don ~ House   R            4 Appropria~ <NA>      <NA>          
10 Tom ~ House   R            5 Agricultu~ <NA>      <NA>          
# ... with 1,121 more rows, and 7 more variables: startdate <dttm>,
#   enddate <dttm>, startdate2 <dttm>, enddate2 <dttm>, startdate3 <lgl>,
#   enddate3 <lgl>, year <chr>
```
…
## Prepping the Data
.panel1-data_prep-auto[

```r
members02_11 %>%
* arrange(year, district)
```
]
 
.panel2-data_prep-auto[

```
# A tibble: 1,131 x 14
   name  chamber party district committees positions partialsession
   <chr> <chr>   <chr>    <dbl> <chr>      <chr>     <chr>         
 1 John~ House   R            1 Environme~ <NA>      <NA>          
 2 Geor~ House   R            1 Local Gov~ <NA>      <NA>          
 3 Shaw~ Senate  R            1 Transport~ <NA>      <NA>          
 4 Hild~ House   R            2 Business;~ <NA>      Temporary Abs~
 5 Free~ House   R            2 <NA>       <NA>      Acting Repres~
 6 Wayn~ House   R            2 Appropria~ <NA>      <NA>          
 7 Clyd~ Senate  R            2 Finance; ~ <NA>      <NA>          
 8 Jim ~ House   R            3 Appropria~ <NA>      <NA>          
 9 Kris~ House   R            3 Business;~ <NA>      <NA>          
10 John~ Senate  R            3 Commerce ~ <NA>      <NA>          
# ... with 1,121 more rows, and 7 more variables: startdate <dttm>,
#   enddate <dttm>, startdate2 <dttm>, enddate2 <dttm>, startdate3 <lgl>,
#   enddate3 <lgl>, year <chr>
```
…
## Prepping the Data
.panel1-data_prep-auto[

```r
members02_11 %>%
  arrange(year, district) %>%
* select(name, chamber, party, district, year)
```
]
 
.panel2-data_prep-auto[

```
# A tibble: 1,131 x 5
   name               chamber party district year 
   <chr>              <chr>   <chr>    <dbl> <chr>
 1 John L. Campbell   House   R            1 2002 
 2 George E. Eskridge House   R            1 2002 
 3 Shawn Keough       Senate  R            1 2002 
 4 Hilde Kellogg      House   R            2 2002 
 5 Freeman B. Duncan  House   R            2 2002 
 6 Wayne R. Meyer     House   R            2 2002 
 7 Clyde Boatright    Senate  R            2 2002 
 8 Jim Clark          House   R            3 2002 
 9 Kris Ellis         House   R            3 2002 
10 John W. Goedde     Senate  R            3 2002 
# ... with 1,121 more rows
```
…
## Prepping the Data
.panel1-data_prep-auto[

```r
members02_11 %>%
  arrange(year, district) %>%
  select(name, chamber, party, district, year) %>%
* group_by(year, district)
```
]
 
.panel2-data_prep-auto[

```
# A tibble: 1,131 x 5
# Groups:   year, district [350]
   name               chamber party district year 
   <chr>              <chr>   <chr>    <dbl> <chr>
 1 John L. Campbell   House   R            1 2002 
 2 George E. Eskridge House   R            1 2002 
 3 Shawn Keough       Senate  R            1 2002 
 4 Hilde Kellogg      House   R            2 2002 
 5 Freeman B. Duncan  House   R            2 2002 
 6 Wayne R. Meyer     House   R            2 2002 
 7 Clyde Boatright    Senate  R            2 2002 
 8 Jim Clark          House   R            3 2002 
 9 Kris Ellis         House   R            3 2002 
10 John W. Goedde     Senate  R            3 2002 
# ... with 1,121 more rows
```
…
.panel2-data_prep-auto[

```
# A tibble: 1,131 x 6
# Groups:   year, district [350]
   name               chamber party district year  party_total
   <chr>              <chr>   <chr>    <dbl> <chr> <chr>      
 1 John L. Campbell   House   R            1 2002  R          
 2 George E. Eskridge House   R            1 2002  R          
 3 Shawn Keough       Senate  R            1 2002  R          
 4 Hilde Kellogg      House   R            2 2002  R          
 5 Freeman B. Duncan  House   R            2 2002  R          
 6 Wayne R. Meyer     House   R            2 2002  R          
 7 Clyde Boatright    Senate  R            2 2002  R          
 8 Jim Clark          House   R            3 2002  R          
 9 Kris Ellis         House   R            3 2002  R          
10 John W. Goedde     Senate  R            3 2002  R          
# ... with 1,121 more rows
```
…
.panel2-data_prep-auto[

```
# A tibble: 1,131 x 6
   name               chamber party district year  party_total
   <chr>              <chr>   <chr>    <dbl> <chr> <chr>      
 1 John L. Campbell   House   R            1 2002  R          
 2 George E. Eskridge House   R            1 2002  R          
 3 Shawn Keough       Senate  R            1 2002  R          
 4 Hilde Kellogg      House   R            2 2002  R          
 5 Freeman B. Duncan  House   R            2 2002  R          
 6 Wayne R. Meyer     House   R            2 2002  R          
 7 Clyde Boatright    Senate  R            2 2002  R          
 8 Jim Clark          House   R            3 2002  R          
 9 Kris Ellis         House   R            3 2002  R          
10 John W. Goedde     Senate  R            3 2002  R          
# ... with 1,121 more rows
```
…
.panel2-data_prep-auto[

```
# A tibble: 1,131 x 3
   year  district party_total
   <chr>    <dbl> <chr>      
 1 2002         1 R          
 2 2002         1 R          
 3 2002         1 R          
 4 2002         2 R          
 5 2002         2 R          
 6 2002         2 R          
 7 2002         2 R          
 8 2002         3 R          
 9 2002         3 R          
10 2002         3 R          
# ... with 1,121 more rows
```
…
.panel2-data_prep-auto[

```
# A tibble: 350 x 3
   year  district party_total
   <chr>    <dbl> <chr>      
 1 2002         1 R          
 2 2002         2 R          
 3 2002         3 R          
 4 2002         4 M          
 5 2002         5 R          
 6 2002         6 R          
 7 2002         7 M          
 8 2002         8 R          
 9 2002         9 R          
10 2002        10 R          
# ... with 340 more rows
```
…
.panel2-data_prep-auto[

```
# A tibble: 350 x 4
   year  district party_total NDISTRICT
   <chr>    <dbl> <chr>           <dbl>
 1 2002         1 R                   1
 2 2002         2 R                   2
 3 2002         3 R                   3
 4 2002         4 M                   4
 5 2002         5 R                   5
 6 2002         6 R                   6
 7 2002         7 M                   7
 8 2002         8 R                   8
 9 2002         9 R                   9
10 2002        10 R                  10
# ... with 340 more rows
```
…
